<svg width="50mm" height="50mm" clip-rule="evenodd" fill-rule="evenodd" image-rendering="optimizeQuality" shape-rendering="geometricPrecision" text-rendering="geometricPrecision" version="1.1" viewBox="0 0 50 50" xmlns="http://www.w3.org/2000/svg">
 <path d="m11.764 23.635 0.7558 1.0003c0.3935-0.18404 0.81489-1.5936-0.04-1.8973l-0.71599 0.89706z" style="clip-rule:evenodd;fill-rule:evenodd;fill:#000000;image-rendering:optimizeQuality;opacity:.3;shape-rendering:geometricPrecision"/>
 <path d="m35.524 38.735-1.8724-6.0602s10.65-20.388-8.6149-24.427c0 0-2.1208-2.0385-5.1056-2.3123 0.3369 2.1106 0.1197 3.5447 0.1197 3.5447-3.5874 2.2792-4.6084 1.2132-5.3928 5.0837l-6.63 8.9655 2.5437 3.7657 2.7473 0.34234 2.3869-2.0882c1.4802-1.2145 4.2329 0.26094 7.5332-1.9991 0.226 2.5986-12.923 7.6967-8.7507 15.185z" style="fill:#f0f0f0;stroke-linejoin:round;stroke-width:1.2;stroke:#3c3c3c"/>
 <path d="m19.931 5.935c0.08 0.50162-0.028-0.41503 0 0 0.7859 0.49712 4.2618 3.7342 4.2618 3.7342 18.598 4.9726 4.5525 23.206 4.6959 23.005l1.343 6.0606h5.2917l-1.8723-6.0606s10.65-20.388-8.615-24.427c0 0-2.1204-2.0381-5.1051-2.312z" style="fill:#0d0d0c;opacity:.15"/>
 <path d="m12.029 25.197-1.4576 2.0977 2.7473 0.34234c-0.0231-6e-3 2.3869-2.0882 2.3869-2.0882 2.534-0.39146 4.6777-0.55905 7.5332-1.9991 4.2283-0.95153 2.6-6.7708 2.6-6.7708-3.9176 7.0542-6.1445 4.1001-13.81 8.418z" style="clip-rule:evenodd;fill-rule:evenodd;image-rendering:optimizeQuality;opacity:.15;shape-rendering:geometricPrecision"/>
 <path d="m10.613 26.269-1.8355-2.6789 6.4277-8.7303c0.77947-3.208 1.2466-2.6731 5.4074-4.994 0.0864-0.0108 0.22009-2.5606-9e-4 -3.1909 0 0 1.8364 2.9676 1.0261 3.7118-3.4076 2.6727-4.7132 1.1241-5.7547 5.1676l-6.4895 8.0525z" style="fill:#ffffff"/>
 <path d="m25.526 21.931c-0.2304 0.72425-1.6941 1.5255-1.7042 1.4434 0.3408 3.5273-10.535 6.6754-9.3975 13.337 1.1282-7.638 12.606-9.8537 11.102-14.78z" style="clip-rule:evenodd;fill-rule:evenodd;fill:#ffffff;image-rendering:optimizeQuality;shape-rendering:geometricPrecision"/>
 <path d="m24.999 36.457s-9.1309 0.0481-11.691 1.6192c-1.7273 1.0602-2.1348 3.6514-1.8998 6.3237h27.182c0.23495-2.6723-0.17255-5.2636-1.8999-6.3237-2.5597-1.5711-11.691-1.6192-11.691-1.6192z" style="clip-rule:evenodd;fill-rule:evenodd;fill:#f0f0f0;image-rendering:optimizeQuality;shape-rendering:geometricPrecision;stroke-linejoin:round;stroke-width:1.2;stroke:#3c3c3c"/>
 <path d="m24.999 37.147s-8.7121-0.13732-11.624 1.6658c-0.36985 0.22905-0.69925 0.83944-0.95359 1.3902 0.26077-0.3313 0.50213-0.61301 0.88663-0.84901 2.5598-1.5711 11.691-1.6191 11.691-1.6191s9.1318 0.0479 11.692 1.6191c0.39104 0.24 0.59243 0.53161 0.85561 0.87009 0.0258-0.0759-0.40837-1.1578-1.1438-1.5962-2.7554-1.492-11.403-1.4808-11.403-1.4808z" style="clip-rule:evenodd;fill-rule:evenodd;fill:#ffffff;image-rendering:optimizeQuality;shape-rendering:geometricPrecision"/>
 <path d="m18.163 16.013c-0.0972-0.14874 0.0856-2.0933 3.3133-1.879-1.2568 3.7988-3.3034 1.7503-3.3133 1.879z" style="fill:#000000;opacity:.4"/>
 <path d="m9.431 23.536 0.72072 0.96519c0.11155-0.79755 1.2456-1.6389 0.26793-2.1764l-0.98884 1.2113z" style="clip-rule:evenodd;fill-rule:evenodd;fill:#000000;image-rendering:optimizeQuality;opacity:.4;shape-rendering:geometricPrecision"/>
</svg>
